[Begin Solution]

[Program inputs]
ALGORITHM => A*
GAME => 15 puzzle
INPUT FILE => /Users/prasoon/Documents/books/AI/AI Assignment 1/test/in_2.txt
OUTPUT FILE => /Users/prasoon/Documents/books/AI/AI Assignment 1/test/out_2.txt
INITIAL STATE: 
[[6, 7, 10, 5], [1, 0, 3, 4], [14, 11, 2, 8], [9, 13, 15, 12]]
FINAL STATE:
[[1, 2, 3, 4], [5, 6, 7, 8], [9, 10, 11, 12], [13, 14, 15, 0]]
HEURISTIC:  Manhattan_Distance
MOVES: 
U R R D L D L L D R U U U R D R D L L U U L D R U R D D R D 
PATH LENGTH: 31
NODES EXPANDED: 3944
EXECUTION TIME:  1 seconds
TRAVERSED STATES: 
6 7 10 5 

1 0 3 4 

14 11 2 8 

9 13 15 12 

  |    
  V    
6 0 10 5 

1 7 3 4 

14 11 2 8 

9 13 15 12 

  |    
  V    
6 10 0 5 

1 7 3 4 

14 11 2 8 

9 13 15 12 

  |    
  V    
6 10 5 0 

1 7 3 4 

14 11 2 8 

9 13 15 12 

  |    
  V    
6 10 5 4 

1 7 3 0 

14 11 2 8 

9 13 15 12 

  |    
  V    
6 10 5 4 

1 7 0 3 

14 11 2 8 

9 13 15 12 

  |    
  V    
6 10 5 4 

1 7 2 3 

14 11 0 8 

9 13 15 12 

  |    
  V    
6 10 5 4 

1 7 2 3 

14 0 11 8 

9 13 15 12 

  |    
  V    
6 10 5 4 

1 7 2 3 

0 14 11 8 

9 13 15 12 

  |    
  V    
6 10 5 4 

1 7 2 3 

9 14 11 8 

0 13 15 12 

  |    
  V    
6 10 5 4 

1 7 2 3 

9 14 11 8 

13 0 15 12 

  |    
  V    
6 10 5 4 

1 7 2 3 

9 0 11 8 

13 14 15 12 

  |    
  V    
6 10 5 4 

1 0 2 3 

9 7 11 8 

13 14 15 12 

  |    
  V    
6 0 5 4 

1 10 2 3 

9 7 11 8 

13 14 15 12 

  |    
  V    
6 5 0 4 

1 10 2 3 

9 7 11 8 

13 14 15 12 

  |    
  V    
6 5 2 4 

1 10 0 3 

9 7 11 8 

13 14 15 12 

  |    
  V    
6 5 2 4 

1 10 3 0 

9 7 11 8 

13 14 15 12 

  |    
  V    
6 5 2 4 

1 10 3 8 

9 7 11 0 

13 14 15 12 

  |    
  V    
6 5 2 4 

1 10 3 8 

9 7 0 11 

13 14 15 12 

  |    
  V    
6 5 2 4 

1 10 3 8 

9 0 7 11 

13 14 15 12 

  |    
  V    
6 5 2 4 

1 0 3 8 

9 10 7 11 

13 14 15 12 

  |    
  V    
6 0 2 4 

1 5 3 8 

9 10 7 11 

13 14 15 12 

  |    
  V    
0 6 2 4 

1 5 3 8 

9 10 7 11 

13 14 15 12 

  |    
  V    
1 6 2 4 

0 5 3 8 

9 10 7 11 

13 14 15 12 

  |    
  V    
1 6 2 4 

5 0 3 8 

9 10 7 11 

13 14 15 12 

  |    
  V    
1 0 2 4 

5 6 3 8 

9 10 7 11 

13 14 15 12 

  |    
  V    
1 2 0 4 

5 6 3 8 

9 10 7 11 

13 14 15 12 

  |    
  V    
1 2 3 4 

5 6 0 8 

9 10 7 11 

13 14 15 12 

  |    
  V    
1 2 3 4 

5 6 7 8 

9 10 0 11 

13 14 15 12 

  |    
  V    
1 2 3 4 

5 6 7 8 

9 10 11 0 

13 14 15 12 

  |    
  V    
1 2 3 4 

5 6 7 8 

9 10 11 12 

13 14 15 0 

[END Solution]

