[Begin Solution]

[Program inputs]
ALGORITHM => A*
GAME => 8 puzzle
INPUT FILE => /Users/prasoon/Documents/books/AI/AI Assignment 1/compare/in_6.txt
OUTPUT FILE => /Users/prasoon/Documents/books/AI/AI Assignment 1/compare/out_6.txt
INITIAL STATE: 
[[1, 3, 5], [8, 0, 2], [4, 7, 6]]
FINAL STATE:
[[1, 2, 3], [4, 5, 6], [7, 8, 0]]
HEURISTIC:  Manhattan_Distance
MOVES: 
L D R U R U L D R D 
PATH LENGTH: 11
NODES EXPANDED: 21
EXECUTION TIME: 9.249210 milli-seconds
TRAVERSED STATES: 
1 3 5 

8 0 2 

4 7 6 

  |    
  V    
1 3 5 

0 8 2 

4 7 6 

  |    
  V    
1 3 5 

4 8 2 

0 7 6 

  |    
  V    
1 3 5 

4 8 2 

7 0 6 

  |    
  V    
1 3 5 

4 0 2 

7 8 6 

  |    
  V    
1 3 5 

4 2 0 

7 8 6 

  |    
  V    
1 3 0 

4 2 5 

7 8 6 

  |    
  V    
1 0 3 

4 2 5 

7 8 6 

  |    
  V    
1 2 3 

4 0 5 

7 8 6 

  |    
  V    
1 2 3 

4 5 0 

7 8 6 

  |    
  V    
1 2 3 

4 5 6 

7 8 0 

[END Solution]

