[Begin Solution]

[Program inputs]
ALGORITHM => A*
GAME => 15 puzzle
INPUT FILE => /Users/prasoon/Documents/books/AI/AI Assignment 1/test/in_1.txt
OUTPUT FILE => /Users/prasoon/Documents/books/AI/AI Assignment 1/test/out_1.txt
INITIAL STATE: 
[[6, 1, 2, 4], [5, 7, 10, 8], [0, 11, 3, 12], [9, 13, 14, 15]]
FINAL STATE:
[[1, 2, 3, 4], [5, 6, 7, 8], [9, 10, 11, 12], [13, 14, 15, 0]]
HEURISTIC:  Manhattan_Distance
MOVES: 
U U R D R D L U U R D L L D D R R R 
PATH LENGTH: 19
NODES EXPANDED: 121
EXECUTION TIME:  0 seconds
TRAVERSED STATES: 
6 1 2 4 

5 7 10 8 

0 11 3 12 

9 13 14 15 

  |    
  V    
6 1 2 4 

0 7 10 8 

5 11 3 12 

9 13 14 15 

  |    
  V    
0 1 2 4 

6 7 10 8 

5 11 3 12 

9 13 14 15 

  |    
  V    
1 0 2 4 

6 7 10 8 

5 11 3 12 

9 13 14 15 

  |    
  V    
1 7 2 4 

6 0 10 8 

5 11 3 12 

9 13 14 15 

  |    
  V    
1 7 2 4 

6 10 0 8 

5 11 3 12 

9 13 14 15 

  |    
  V    
1 7 2 4 

6 10 3 8 

5 11 0 12 

9 13 14 15 

  |    
  V    
1 7 2 4 

6 10 3 8 

5 0 11 12 

9 13 14 15 

  |    
  V    
1 7 2 4 

6 0 3 8 

5 10 11 12 

9 13 14 15 

  |    
  V    
1 0 2 4 

6 7 3 8 

5 10 11 12 

9 13 14 15 

  |    
  V    
1 2 0 4 

6 7 3 8 

5 10 11 12 

9 13 14 15 

  |    
  V    
1 2 3 4 

6 7 0 8 

5 10 11 12 

9 13 14 15 

  |    
  V    
1 2 3 4 

6 0 7 8 

5 10 11 12 

9 13 14 15 

  |    
  V    
1 2 3 4 

0 6 7 8 

5 10 11 12 

9 13 14 15 

  |    
  V    
1 2 3 4 

5 6 7 8 

0 10 11 12 

9 13 14 15 

  |    
  V    
1 2 3 4 

5 6 7 8 

9 10 11 12 

0 13 14 15 

  |    
  V    
1 2 3 4 

5 6 7 8 

9 10 11 12 

13 0 14 15 

  |    
  V    
1 2 3 4 

5 6 7 8 

9 10 11 12 

13 14 0 15 

  |    
  V    
1 2 3 4 

5 6 7 8 

9 10 11 12 

13 14 15 0 

HEURISTIC:  Misplaced_Tiles
MOVES: 
U U R D R D L U U R D L L D D R R R 
PATH LENGTH: 19
NODES EXPANDED: 1023
EXECUTION TIME:  0 seconds
TRAVERSED STATES: 
6 1 2 4 

5 7 10 8 

0 11 3 12 

9 13 14 15 

  |    
  V    
6 1 2 4 

0 7 10 8 

5 11 3 12 

9 13 14 15 

  |    
  V    
0 1 2 4 

6 7 10 8 

5 11 3 12 

9 13 14 15 

  |    
  V    
1 0 2 4 

6 7 10 8 

5 11 3 12 

9 13 14 15 

  |    
  V    
1 7 2 4 

6 0 10 8 

5 11 3 12 

9 13 14 15 

  |    
  V    
1 7 2 4 

6 10 0 8 

5 11 3 12 

9 13 14 15 

  |    
  V    
1 7 2 4 

6 10 3 8 

5 11 0 12 

9 13 14 15 

  |    
  V    
1 7 2 4 

6 10 3 8 

5 0 11 12 

9 13 14 15 

  |    
  V    
1 7 2 4 

6 0 3 8 

5 10 11 12 

9 13 14 15 

  |    
  V    
1 0 2 4 

6 7 3 8 

5 10 11 12 

9 13 14 15 

  |    
  V    
1 2 0 4 

6 7 3 8 

5 10 11 12 

9 13 14 15 

  |    
  V    
1 2 3 4 

6 7 0 8 

5 10 11 12 

9 13 14 15 

  |    
  V    
1 2 3 4 

6 0 7 8 

5 10 11 12 

9 13 14 15 

  |    
  V    
1 2 3 4 

0 6 7 8 

5 10 11 12 

9 13 14 15 

  |    
  V    
1 2 3 4 

5 6 7 8 

0 10 11 12 

9 13 14 15 

  |    
  V    
1 2 3 4 

5 6 7 8 

9 10 11 12 

0 13 14 15 

  |    
  V    
1 2 3 4 

5 6 7 8 

9 10 11 12 

13 0 14 15 

  |    
  V    
1 2 3 4 

5 6 7 8 

9 10 11 12 

13 14 0 15 

  |    
  V    
1 2 3 4 

5 6 7 8 

9 10 11 12 

13 14 15 0 

[END Solution]

